#TAG,NAME IN REPO (or git url),PURPOSE (should be a verb phrase to sound right while installing)
#
#
# Core
#
,bash,"A sh-compatible shell that incorporates useful features from the Korn shell (ksh) and C shell (csh)"
,termux-tools,"Basic system tools for Termux"
,git,"is used to retreive, manage: source code,data"
,coreutils,"Basic file; shell and text manipulation utilities from the GNU project"
#
# Core ui
#
,dialog,"used to prompt info"
,ncurses,
,fzf,"is a fuzzy finder tool."
G,https://github.com/joshaw/slmenu,"spinoff di dmenu per la console"
#
# Core net
#
,libcurl,"Easy-to-use client-side URL transfer library"
,curl,"used to doenload content"
,wget,"used to download content"
,openssh,"connect to servers"
,openssl,
,rsync,"Utility that provides fast incremental file transfer"
#
# Core build and input
#
,ndk-sysroot,"System header and library files from the Android NDK needed for compiling C programs"
,make,"used to build thinks"
,man,"is cli proframs manual viewer"
,readline,
#
# Editor
#
,vim,"is text editor"
,clangs,
,ctags,
,clang,"C language frontend for LLVM"
#
# Archive
#
,zip,
,unzip,
,gzip,"Standard GNU file compression utilities"
,tar,
,zlib,"Compression library implementing the deflate compression method found in gzip and PKZIP"
#
# Browser
#
,lynx,"is cli browser"
#
# Core termux
#
,termux-api,"need to use android api from termux"
#
# Base text prpcessing
#
,sed,"GNU stream editor for filtering/transforming text"
,diffutils,"Programs (cmp; diff, diff3 and sdiff) related to finding differences between files"
,dos2unix,"Converts between DOS and Unix text files"
,gawk,"Programming language designed for text processing"
,inotify-tools,"Programs providing a simple interface to inotify"
,json-c,"A JSON implementation in C"
,jq,"Command-line JSON processor"
,libxml2,"Library for parsing XML documents"
,libxml2-utils,"XML utilities"
#
# Intermediate Net Tools
#
,netcat,"Feature-packed networking utility which reads and writes data across networks from the command line"
,nmap,"Utility for network discovery and security auditing"
,iproute2,"Utilities for controlling networking.Used to have ip command"
